INFO  -> Exporting image to PNG
INFO  -> Done!
took 552.318 seconds.
==3192== Profiling application: ./raytracing
==3192== Profiling result:
==3192== Metric result:
Invocations                               Metric Name                                                    Metric Description         Min         Max         Avg
Device "Tesla P100-PCIE-16GB (0)"
    Kernel: generate_seed_pseudo(__int64, __int64, __int64, curandOrdering, curandStateXORWOW*, unsigned int*)
          1                             inst_per_warp                                                 Instructions per warp  4.9840e+04  4.9840e+04  4.9840e+04
          1                         branch_efficiency                                                     Branch Efficiency      99.91%      99.91%      99.91%
          1                 warp_execution_efficiency                                             Warp Execution Efficiency      54.75%      54.75%      54.75%
          1         warp_nonpred_execution_efficiency                              Warp Non-Predicated Execution Efficiency      53.16%      53.16%      53.16%
          1                      inst_replay_overhead                                           Instruction Replay Overhead    0.000161    0.000161    0.000161
          1      shared_load_transactions_per_request                           Shared Memory Load Transactions Per Request    0.000000    0.000000    0.000000
          1     shared_store_transactions_per_request                          Shared Memory Store Transactions Per Request    0.000000    0.000000    0.000000
          1       local_load_transactions_per_request                            Local Memory Load Transactions Per Request    0.000000    0.000000    0.000000
          1      local_store_transactions_per_request                           Local Memory Store Transactions Per Request    0.000000    0.000000    0.000000
          1              gld_transactions_per_request                                  Global Load Transactions Per Request   14.556169   14.556169   14.556169
          1              gst_transactions_per_request                                 Global Store Transactions Per Request   13.557342   13.557342   13.557342
          1                 shared_store_transactions                                             Shared Store Transactions           0           0           0
          1                  shared_load_transactions                                              Shared Load Transactions           0           0           0
          1                   local_load_transactions                                               Local Load Transactions           0           0           0
          1                  local_store_transactions                                              Local Store Transactions           0           0           0
          1                          gld_transactions                                              Global Load Transactions    19693914    19693914    19693914
          1                          gst_transactions                                             Global Store Transactions    15336933    15336933    15336933
          1                  sysmem_read_transactions                                       System Memory Read Transactions           0           0           0
          1                 sysmem_write_transactions                                      System Memory Write Transactions           5           5           5
          1                      l2_read_transactions                                                  L2 Read Transactions     2984040     2984040     2984040
          1                     l2_write_transactions                                                 L2 Write Transactions    15340052    15340052    15340052
          1                    dram_read_transactions                                       Device Memory Read Transactions        5837        5837        5837
          1                   dram_write_transactions                                      Device Memory Write Transactions       31102       31102       31102
          1                           global_hit_rate                                     Global Hit Rate in unified l1/tex      46.94%      46.94%      46.94%
          1                            local_hit_rate                                                        Local Hit Rate       0.00%       0.00%       0.00%
          1                  gld_requested_throughput                                      Requested Global Load Throughput  7.5349GB/s  7.5349GB/s  7.5349GB/s
          1                  gst_requested_throughput                                     Requested Global Store Throughput  20.571GB/s  20.571GB/s  20.571GB/s
          1                            gld_throughput                                                Global Load Throughput  60.279GB/s  60.279GB/s  60.279GB/s
          1                            gst_throughput                                               Global Store Throughput  164.39GB/s  164.39GB/s  164.39GB/s
          1                     local_memory_overhead                                                 Local Memory Overhead       0.00%       0.00%       0.00%
          1                        tex_cache_hit_rate                                                Unified Cache Hit Rate      23.31%      23.31%      23.31%
          1                      l2_tex_read_hit_rate                                           L2 Hit Rate (Texture Reads)      99.89%      99.89%      99.89%
          1                     l2_tex_write_hit_rate                                          L2 Hit Rate (Texture Writes)      99.97%      99.97%      99.97%
          1                      dram_read_throughput                                         Device Memory Read Throughput  64.067MB/s  64.067MB/s  64.067MB/s
          1                     dram_write_throughput                                        Device Memory Write Throughput  341.38MB/s  341.38MB/s  341.38MB/s
          1                      tex_cache_throughput                                              Unified Cache Throughput  52.774GB/s  52.774GB/s  52.774GB/s
          1                    l2_tex_read_throughput                                         L2 Throughput (Texture Reads)  31.985GB/s  31.985GB/s  31.985GB/s
          1                   l2_tex_write_throughput                                        L2 Throughput (Texture Writes)  164.39GB/s  164.39GB/s  164.39GB/s
          1                        l2_read_throughput                                                 L2 Throughput (Reads)  31.985GB/s  31.985GB/s  31.985GB/s
          1                       l2_write_throughput                                                L2 Throughput (Writes)  164.43GB/s  164.43GB/s  164.43GB/s
          1                    sysmem_read_throughput                                         System Memory Read Throughput  0.00000B/s  0.00000B/s  0.00000B/s
          1                   sysmem_write_throughput                                        System Memory Write Throughput  56.197KB/s  56.197KB/s  56.196KB/s
          1                     local_load_throughput                                          Local Memory Load Throughput  0.00000B/s  0.00000B/s  0.00000B/s
          1                    local_store_throughput                                         Local Memory Store Throughput  0.00000B/s  0.00000B/s  0.00000B/s
          1                    shared_load_throughput                                         Shared Memory Load Throughput  0.00000B/s  0.00000B/s  0.00000B/s
          1                   shared_store_throughput                                        Shared Memory Store Throughput  0.00000B/s  0.00000B/s  0.00000B/s
          1                            gld_efficiency                                         Global Memory Load Efficiency      12.50%      12.50%      12.50%
          1                            gst_efficiency                                        Global Memory Store Efficiency      12.51%      12.51%      12.51%
          1                    tex_cache_transactions                                            Unified Cache Transactions     4923478     4923478     4923478
          1                             flop_count_dp                           Floating Point Operations(Double Precision)           0           0           0
          1                         flop_count_dp_add                       Floating Point Operations(Double Precision Add)           0           0           0
          1                         flop_count_dp_fma                       Floating Point Operations(Double Precision FMA)           0           0           0
          1                         flop_count_dp_mul                       Floating Point Operations(Double Precision Mul)           0           0           0
          1                             flop_count_sp                           Floating Point Operations(Single Precision)           0           0           0
          1                         flop_count_sp_add                       Floating Point Operations(Single Precision Add)           0           0           0
          1                         flop_count_sp_fma                       Floating Point Operations(Single Precision FMA)           0           0           0
          1                         flop_count_sp_mul                        Floating Point Operation(Single Precision Mul)           0           0           0
          1                     flop_count_sp_special                   Floating Point Operations(Single Precision Special)           0           0           0
          1                             inst_executed                                                 Instructions Executed     6379530     6379530     6379530
          1                               inst_issued                                                   Instructions Issued     6380558     6380558     6380558
          1                          dram_utilization                                             Device Memory Utilization     Low (1)     Low (1)     Low (1)
          1                        sysmem_utilization                                             System Memory Utilization     Low (1)     Low (1)     Low (1)
          1                          stall_inst_fetch                              Issue Stall Reasons (Instructions Fetch)       3.83%       3.83%       3.83%
          1                     stall_exec_dependency                            Issue Stall Reasons (Execution Dependency)       6.94%       6.94%       6.94%
          1                   stall_memory_dependency                                    Issue Stall Reasons (Data Request)      86.78%      86.78%      86.78%
          1                             stall_texture                                         Issue Stall Reasons (Texture)       0.00%       0.00%       0.00%
          1                                stall_sync                                 Issue Stall Reasons (Synchronization)       0.00%       0.00%       0.00%
          1                               stall_other                                           Issue Stall Reasons (Other)       2.27%       2.27%       2.27%
          1          stall_constant_memory_dependency                              Issue Stall Reasons (Immediate constant)       0.06%       0.06%       0.06%
          1                           stall_pipe_busy                                       Issue Stall Reasons (Pipe Busy)       0.11%       0.11%       0.11%
          1                         shared_efficiency                                              Shared Memory Efficiency       0.00%       0.00%       0.00%
          1                                inst_fp_32                                               FP Instructions(Single)           0           0           0
          1                                inst_fp_64                                               FP Instructions(Double)           0           0           0
          1                              inst_integer                                                  Integer Instructions    55432680    55432680    55432680
          1                          inst_bit_convert                                              Bit-Convert Instructions           0           0           0
          1                              inst_control                                             Control-Flow Instructions    14850050    14850050    14850050
          1                        inst_compute_ld_st                                               Load/Store Instructions    34702521    34702521    34702521
          1                                 inst_misc                                                     Misc Instructions     3540989     3540989     3540989
          1           inst_inter_thread_communication                                             Inter-Thread Instructions           0           0           0
          1                               issue_slots                                                           Issue Slots     5980856     5980856     5980856
          1                                 cf_issued                                      Issued Control-Flow Instructions      877284      877284      877284
          1                               cf_executed                                    Executed Control-Flow Instructions      877284      877284      877284
          1                               ldst_issued                                        Issued Load/Store Instructions     9039313     9039313     9039313
          1                             ldst_executed                                      Executed Load/Store Instructions     2484480     2484480     2484480
          1                       atomic_transactions                                                   Atomic Transactions           0           0           0
          1           atomic_transactions_per_request                                       Atomic Transactions Per Request    0.000000    0.000000    0.000000
          1                      l2_atomic_throughput                                       L2 Throughput (Atomic requests)  0.00000B/s  0.00000B/s  0.00000B/s
          1                    l2_atomic_transactions                                     L2 Transactions (Atomic requests)           0           0           0
          1                  l2_tex_read_transactions                                       L2 Transactions (Texture Reads)     2984027     2984027     2984027
          1                     stall_memory_throttle                                 Issue Stall Reasons (Memory Throttle)       0.00%       0.00%       0.00%
          1                        stall_not_selected                                    Issue Stall Reasons (Not Selected)       0.01%       0.01%       0.01%
          1                 l2_tex_write_transactions                                      L2 Transactions (Texture Writes)    15336933    15336933    15336933
          1                             flop_count_hp                             Floating Point Operations(Half Precision)           0           0           0
          1                         flop_count_hp_add                         Floating Point Operations(Half Precision Add)           0           0           0
          1                         flop_count_hp_mul                          Floating Point Operation(Half Precision Mul)           0           0           0
          1                         flop_count_hp_fma                         Floating Point Operations(Half Precision FMA)           0           0           0
          1                                inst_fp_16                                                 HP Instructions(Half)           0           0           0
          1                                       ipc                                                          Executed IPC    0.052414    0.052414    0.052414
          1                                issued_ipc                                                            Issued IPC    0.052422    0.052422    0.052422
          1                    issue_slot_utilization                                                Issue Slot Utilization       2.46%       2.46%       2.46%
          1                             sm_efficiency                                               Multiprocessor Activity      65.16%      65.16%      65.16%
          1                        achieved_occupancy                                                    Achieved Occupancy    0.032867    0.032867    0.032867
          1                  eligible_warps_per_cycle                                       Eligible Warps Per Active Cycle    0.049416    0.049416    0.049416
          1                        shared_utilization                                             Shared Memory Utilization    Idle (0)    Idle (0)    Idle (0)
          1                            l2_utilization                                                  L2 Cache Utilization     Low (1)     Low (1)     Low (1)
          1                           tex_utilization                                             Unified Cache Utilization     Low (1)     Low (1)     Low (1)
          1                       ldst_fu_utilization                                  Load/Store Function Unit Utilization     Low (1)     Low (1)     Low (1)
          1                         cf_fu_utilization                                Control-Flow Function Unit Utilization     Low (1)     Low (1)     Low (1)
          1                        tex_fu_utilization                                     Texture Function Unit Utilization     Low (1)     Low (1)     Low (1)
          1                    special_fu_utilization                                     Special Function Unit Utilization    Idle (0)    Idle (0)    Idle (0)
          1             half_precision_fu_utilization                              Half-Precision Function Unit Utilization    Idle (0)    Idle (0)    Idle (0)
          1           single_precision_fu_utilization                            Single-Precision Function Unit Utilization    Idle (0)    Idle (0)    Idle (0)
          1           double_precision_fu_utilization                            Double-Precision Function Unit Utilization    Idle (0)    Idle (0)    Idle (0)
          1                        flop_hp_efficiency                                            FLOP Efficiency(Peak Half)       0.00%       0.00%       0.00%
          1                        flop_sp_efficiency                                          FLOP Efficiency(Peak Single)       0.00%       0.00%       0.00%
          1                        flop_dp_efficiency                                          FLOP Efficiency(Peak Double)       0.00%       0.00%       0.00%
          1                   sysmem_read_utilization                                        System Memory Read Utilization    Idle (0)    Idle (0)    Idle (0)
          1                  sysmem_write_utilization                                       System Memory Write Utilization     Low (1)     Low (1)     Low (1)
          1               pcie_total_data_transmitted                                           PCIe Total Data Transmitted         512         512         512
          1                  pcie_total_data_received                                              PCIe Total Data Received           0           0           0
          1                inst_executed_global_loads                              Warp level instructions for global loads     1352960     1352960     1352960
          1                 inst_executed_local_loads                               Warp level instructions for local loads           0           0           0
          1                inst_executed_shared_loads                              Warp level instructions for shared loads           0           0           0
          1               inst_executed_surface_loads                             Warp level instructions for surface loads           0           0           0
          1               inst_executed_global_stores                             Warp level instructions for global stores     1131264     1131264     1131264
          1                inst_executed_local_stores                              Warp level instructions for local stores           0           0           0
          1               inst_executed_shared_stores                             Warp level instructions for shared stores           0           0           0
          1              inst_executed_surface_stores                            Warp level instructions for surface stores           0           0           0
          1              inst_executed_global_atomics                  Warp level instructions for global atom and atom cas           0           0           0
          1           inst_executed_global_reductions                         Warp level instructions for global reductions           0           0           0
          1             inst_executed_surface_atomics                 Warp level instructions for surface atom and atom cas           0           0           0
          1          inst_executed_surface_reductions                        Warp level instructions for surface reductions           0           0           0
          1              inst_executed_shared_atomics                  Warp level shared instructions for atom and atom CAS           0           0           0
          1                     inst_executed_tex_ops                                   Warp level instructions for texture           0           0           0
          1                      l2_global_load_bytes       Bytes read from L2 for misses in Unified Cache for global loads    95502528    95502528    95502528
          1                       l2_local_load_bytes        Bytes read from L2 for misses in Unified Cache for local loads           0           0           0
          1                     l2_surface_load_bytes      Bytes read from L2 for misses in Unified Cache for surface loads           0           0           0
          1                           dram_read_bytes                                Total bytes read from DRAM to L2 cache      186784      186784      186784
          1                          dram_write_bytes                             Total bytes written from L2 cache to DRAM      995264      995264      995264
          1               l2_local_global_store_bytes   Bytes written to L2 from Unified Cache for local and global stores.   490781856   490781856   490781856
          1                 l2_global_reduction_bytes          Bytes written to L2 from Unified cache for global reductions           0           0           0
          1              l2_global_atomic_store_bytes             Bytes written to L2 from Unified cache for global atomics           0           0           0
          1                    l2_surface_store_bytes            Bytes written to L2 from Unified Cache for surface stores.           0           0           0
          1                l2_surface_reduction_bytes         Bytes written to L2 from Unified Cache for surface reductions           0           0           0
          1             l2_surface_atomic_store_bytes    Bytes transferred between Unified Cache and L2 for surface atomics           0           0           0
          1                      global_load_requests              Total number of global load requests from Multiprocessor     4923478     4923478     4923478
          1                       local_load_requests               Total number of local load requests from Multiprocessor           0           0           0
          1                     surface_load_requests             Total number of surface load requests from Multiprocessor           0           0           0
          1                     global_store_requests             Total number of global store requests from Multiprocessor     4115579     4115579     4115579
          1                      local_store_requests              Total number of local store requests from Multiprocessor           0           0           0
          1                    surface_store_requests            Total number of surface store requests from Multiprocessor           0           0           0
          1                    global_atomic_requests            Total number of global atomic requests from Multiprocessor           0           0           0
          1                 global_reduction_requests         Total number of global reduction requests from Multiprocessor           0           0           0
          1                   surface_atomic_requests           Total number of surface atomic requests from Multiprocessor           0           0           0
          1                surface_reduction_requests        Total number of surface reduction requests from Multiprocessor           0           0           0
          1                         sysmem_read_bytes                                              System Memory Read Bytes           0           0           0
          1                        sysmem_write_bytes                                             System Memory Write Bytes         160         160         160
          1                           l2_tex_hit_rate                                                     L2 Cache Hit Rate      99.95%      99.95%      99.95%
          1                     texture_load_requests             Total number of texture Load requests from Multiprocessor           0           0           0
          1                     unique_warps_launched                                              Number of warps launched         128         128         128
    Kernel: void gen_sequenced<curandStateXORWOW, float, int, __operator_&__(float curand_uniform_noargs<curandStateXORWOW>(curandStateXORWOW*, int)), rng_config<curandStateXORWOW>>(curandStateXORWOW*, float*, unsigned long, unsigned long, int)
          1                             inst_per_warp                                                 Instructions per warp  7.2908e+03  7.2908e+03  7.2908e+03
          1                         branch_efficiency                                                     Branch Efficiency     100.00%     100.00%     100.00%
          1                 warp_execution_efficiency                                             Warp Execution Efficiency     100.00%     100.00%     100.00%
          1         warp_nonpred_execution_efficiency                              Warp Non-Predicated Execution Efficiency      99.94%      99.94%      99.94%
          1                      inst_replay_overhead                                           Instruction Replay Overhead    0.000931    0.000931    0.000931
          1      shared_load_transactions_per_request                           Shared Memory Load Transactions Per Request    0.000000    0.000000    0.000000
          1     shared_store_transactions_per_request                          Shared Memory Store Transactions Per Request    0.000000    0.000000    0.000000
          1       local_load_transactions_per_request                            Local Memory Load Transactions Per Request    0.000000    0.000000    0.000000
          1      local_store_transactions_per_request                           Local Memory Store Transactions Per Request    0.000000    0.000000    0.000000
          1              gld_transactions_per_request                                  Global Load Transactions Per Request   29.335938   29.335938   29.335938
          1              gst_transactions_per_request                                 Global Store Transactions Per Request    4.327965    4.327965    4.327965
          1                 shared_store_transactions                                             Shared Store Transactions           0           0           0
          1                  shared_load_transactions                                              Shared Load Transactions           0           0           0
          1                   local_load_transactions                                               Local Load Transactions           0           0           0
          1                  local_store_transactions                                              Local Store Transactions           0           0           0
          1                          gld_transactions                                              Global Load Transactions       22530       22530       22530
          1                          gst_transactions                                             Global Store Transactions      283776      283776      283776
          1                  sysmem_read_transactions                                       System Memory Read Transactions           0           0           0
          1                 sysmem_write_transactions                                      System Memory Write Transactions           5           5           5
          1                      l2_read_transactions                                                  L2 Read Transactions        6240        6240        6240
          1                     l2_write_transactions                                                 L2 Write Transactions      283795      283795      283795
          1                    dram_read_transactions                                       Device Memory Read Transactions          97          97          97
          1                   dram_write_transactions                                      Device Memory Write Transactions      265902      265902      265902
          1                           global_hit_rate                                     Global Hit Rate in unified l1/tex      75.00%      75.00%      75.00%
          1                            local_hit_rate                                                        Local Hit Rate       0.00%       0.00%       0.00%
          1                  gld_requested_throughput                                      Requested Global Load Throughput  8.0820GB/s  8.0820GB/s  8.0820GB/s
          1                  gst_requested_throughput                                     Requested Global Store Throughput  380.04GB/s  380.04GB/s  380.04GB/s
          1                            gld_throughput                                                Global Load Throughput  35.267GB/s  35.267GB/s  35.267GB/s
          1                            gst_throughput                                               Global Store Throughput  407.22GB/s  407.22GB/s  407.22GB/s
          1                     local_memory_overhead                                                 Local Memory Overhead       0.00%       0.00%       0.00%
          1                        tex_cache_hit_rate                                                Unified Cache Hit Rate      48.92%      48.92%      48.92%
          1                      l2_tex_read_hit_rate                                           L2 Hit Rate (Texture Reads)     100.00%     100.00%     100.00%
          1                     l2_tex_write_hit_rate                                          L2 Hit Rate (Texture Writes)       7.58%       7.58%       7.58%
          1                      dram_read_throughput                                         Device Memory Read Throughput  142.54MB/s  142.54MB/s  142.54MB/s
          1                     dram_write_throughput                                        Device Memory Write Throughput  381.57GB/s  381.57GB/s  381.57GB/s
          1                      tex_cache_throughput                                              Unified Cache Throughput  8.0820GB/s  8.0820GB/s  8.0820GB/s
          1                    l2_tex_read_throughput                                         L2 Throughput (Texture Reads)  8.8167GB/s  8.8167GB/s  8.8167GB/s
          1                   l2_tex_write_throughput                                        L2 Throughput (Texture Writes)  407.22GB/s  407.22GB/s  407.22GB/s
          1                        l2_read_throughput                                                 L2 Throughput (Reads)  8.9545GB/s  8.9545GB/s  8.9545GB/s
          1                       l2_write_throughput                                                L2 Throughput (Writes)  407.25GB/s  407.25GB/s  407.25GB/s
          1                    sysmem_read_throughput                                         System Memory Read Throughput  0.00000B/s  0.00000B/s  0.00000B/s
          1                   sysmem_write_throughput                                        System Memory Write Throughput  7.3473MB/s  7.3473MB/s  7.3472MB/s
          1                     local_load_throughput                                          Local Memory Load Throughput  0.00000B/s  0.00000B/s  0.00000B/s
          1                    local_store_throughput                                         Local Memory Store Throughput  0.00000B/s  0.00000B/s  0.00000B/s
          1                    shared_load_throughput                                         Shared Memory Load Throughput  0.00000B/s  0.00000B/s  0.00000B/s
          1                   shared_store_throughput                                        Shared Memory Store Throughput  0.00000B/s  0.00000B/s  0.00000B/s
          1                            gld_efficiency                                         Global Memory Load Efficiency      22.92%      22.92%      22.92%
          1                            gst_efficiency                                        Global Memory Store Efficiency      93.32%      93.32%      93.32%
          1                    tex_cache_transactions                                            Unified Cache Transactions        5632        5632        5632
          1                             flop_count_dp                           Floating Point Operations(Double Precision)           0           0           0
          1                         flop_count_dp_add                       Floating Point Operations(Double Precision Add)           0           0           0
          1                         flop_count_dp_fma                       Floating Point Operations(Double Precision FMA)           0           0           0
          1                         flop_count_dp_mul                       Floating Point Operations(Double Precision Mul)           0           0           0
          1                             flop_count_sp                           Floating Point Operations(Single Precision)     4147200     4147200     4147200
          1                         flop_count_sp_add                       Floating Point Operations(Single Precision Add)           0           0           0
          1                         flop_count_sp_fma                       Floating Point Operations(Single Precision FMA)     2073600     2073600     2073600
          1                         flop_count_sp_mul                        Floating Point Operation(Single Precision Mul)           0           0           0
          1                     flop_count_sp_special                   Floating Point Operations(Single Precision Special)           0           0           0
          1                             inst_executed                                                 Instructions Executed      933216      933216      933216
          1                               inst_issued                                                   Instructions Issued      934085      934085      934085
          1                          dram_utilization                                             Device Memory Utilization     Mid (6)     Mid (6)     Mid (6)
          1                        sysmem_utilization                                             System Memory Utilization     Low (1)     Low (1)     Low (1)
          1                          stall_inst_fetch                              Issue Stall Reasons (Instructions Fetch)      10.31%      10.31%      10.31%
          1                     stall_exec_dependency                            Issue Stall Reasons (Execution Dependency)      65.69%      65.69%      65.69%
          1                   stall_memory_dependency                                    Issue Stall Reasons (Data Request)       3.46%       3.46%       3.46%
          1                             stall_texture                                         Issue Stall Reasons (Texture)       0.00%       0.00%       0.00%
          1                                stall_sync                                 Issue Stall Reasons (Synchronization)       0.00%       0.00%       0.00%
          1                               stall_other                                           Issue Stall Reasons (Other)       2.94%       2.94%       2.94%
          1          stall_constant_memory_dependency                              Issue Stall Reasons (Immediate constant)       6.09%       6.09%       6.09%
          1                           stall_pipe_busy                                       Issue Stall Reasons (Pipe Busy)       4.54%       4.54%       4.54%
          1                         shared_efficiency                                              Shared Memory Efficiency       0.00%       0.00%       0.00%
          1                                inst_fp_32                                               FP Instructions(Single)     2073600     2073600     2073600
          1                                inst_fp_64                                               FP Instructions(Double)           0           0           0
          1                              inst_integer                                                  Integer Instructions    18795520    18795520    18795520
          1                          inst_bit_convert                                              Bit-Convert Instructions     2073600     2073600     2073600
          1                              inst_control                                             Control-Flow Instructions      548864      548864      548864
          1                        inst_compute_ld_st                                               Load/Store Instructions     2122752     2122752     2122752
          1                                 inst_misc                                                     Misc Instructions     4231168     4231168     4231168
          1           inst_inter_thread_communication                                             Inter-Thread Instructions           0           0           0
          1                               issue_slots                                                           Issue Slots      818889      818889      818889
          1                                 cf_issued                                      Issued Control-Flow Instructions       17696       17696       17696
          1                               cf_executed                                    Executed Control-Flow Instructions       17696       17696       17696
          1                               ldst_issued                                        Issued Load/Store Instructions      268160      268160      268160
          1                             ldst_executed                                      Executed Load/Store Instructions       66592       66592       66592
          1                       atomic_transactions                                                   Atomic Transactions           0           0           0
          1           atomic_transactions_per_request                                       Atomic Transactions Per Request    0.000000    0.000000    0.000000
          1                      l2_atomic_throughput                                       L2 Throughput (Atomic requests)  0.00000B/s  0.00000B/s  0.00000B/s
          1                    l2_atomic_transactions                                     L2 Transactions (Atomic requests)           0           0           0
          1                  l2_tex_read_transactions                                       L2 Transactions (Texture Reads)        6144        6144        6144
          1                     stall_memory_throttle                                 Issue Stall Reasons (Memory Throttle)       4.22%       4.22%       4.22%
          1                        stall_not_selected                                    Issue Stall Reasons (Not Selected)       2.75%       2.75%       2.75%
          1                 l2_tex_write_transactions                                      L2 Transactions (Texture Writes)      283776      283776      283776
          1                             flop_count_hp                             Floating Point Operations(Half Precision)           0           0           0
          1                         flop_count_hp_add                         Floating Point Operations(Half Precision Add)           0           0           0
          1                         flop_count_hp_mul                          Floating Point Operation(Half Precision Mul)           0           0           0
          1                         flop_count_hp_fma                         Floating Point Operations(Half Precision FMA)           0           0           0
          1                                inst_fp_16                                                 HP Instructions(Half)           0           0           0
          1                                       ipc                                                          Executed IPC    0.853155    0.853155    0.853155
          1                                issued_ipc                                                            Issued IPC    0.853950    0.853950    0.853950
          1                    issue_slot_utilization                                                Issue Slot Utilization      37.43%      37.43%      37.43%
          1                             sm_efficiency                                               Multiprocessor Activity      67.11%      67.11%      67.11%
          1                        achieved_occupancy                                                    Achieved Occupancy    0.035787    0.035787    0.035787
          1                  eligible_warps_per_cycle                                       Eligible Warps Per Active Cycle    0.788249    0.788249    0.788249
          1                        shared_utilization                                             Shared Memory Utilization    Idle (0)    Idle (0)    Idle (0)
          1                            l2_utilization                                                  L2 Cache Utilization     Low (2)     Low (2)     Low (2)
          1                           tex_utilization                                             Unified Cache Utilization     Low (1)     Low (1)     Low (1)
          1                       ldst_fu_utilization                                  Load/Store Function Unit Utilization     Low (1)     Low (1)     Low (1)
          1                         cf_fu_utilization                                Control-Flow Function Unit Utilization     Low (1)     Low (1)     Low (1)
          1                        tex_fu_utilization                                     Texture Function Unit Utilization     Low (3)     Low (3)     Low (3)
          1                    special_fu_utilization                                     Special Function Unit Utilization     Low (2)     Low (2)     Low (2)
          1             half_precision_fu_utilization                              Half-Precision Function Unit Utilization    Idle (0)    Idle (0)    Idle (0)
          1           single_precision_fu_utilization                            Single-Precision Function Unit Utilization     Low (1)     Low (1)     Low (1)
          1           double_precision_fu_utilization                            Double-Precision Function Unit Utilization    Idle (0)    Idle (0)    Idle (0)
          1                        flop_hp_efficiency                                            FLOP Efficiency(Peak Half)       0.00%       0.00%       0.00%
          1                        flop_sp_efficiency                                          FLOP Efficiency(Peak Single)       1.99%       1.99%       1.99%
          1                        flop_dp_efficiency                                          FLOP Efficiency(Peak Double)       0.00%       0.00%       0.00%
          1                   sysmem_read_utilization                                        System Memory Read Utilization    Idle (0)    Idle (0)    Idle (0)
          1                  sysmem_write_utilization                                       System Memory Write Utilization     Low (1)     Low (1)     Low (1)
          1               pcie_total_data_transmitted                                           PCIe Total Data Transmitted         512         512         512
          1                  pcie_total_data_received                                              PCIe Total Data Received           0           0           0
          1                inst_executed_global_loads                              Warp level instructions for global loads         768         768         768
          1                 inst_executed_local_loads                               Warp level instructions for local loads           0           0           0
          1                inst_executed_shared_loads                              Warp level instructions for shared loads           0           0           0
          1               inst_executed_surface_loads                             Warp level instructions for surface loads           0           0           0
          1               inst_executed_global_stores                             Warp level instructions for global stores       65568       65568       65568
          1                inst_executed_local_stores                              Warp level instructions for local stores           0           0           0
          1               inst_executed_shared_stores                             Warp level instructions for shared stores           0           0           0
          1              inst_executed_surface_stores                            Warp level instructions for surface stores           0           0           0
          1              inst_executed_global_atomics                  Warp level instructions for global atom and atom cas           0           0           0
          1           inst_executed_global_reductions                         Warp level instructions for global reductions           0           0           0
          1             inst_executed_surface_atomics                 Warp level instructions for surface atom and atom cas           0           0           0
          1          inst_executed_surface_reductions                        Warp level instructions for surface reductions           0           0           0
          1              inst_executed_shared_atomics                  Warp level shared instructions for atom and atom CAS           0           0           0
          1                     inst_executed_tex_ops                                   Warp level instructions for texture           0           0           0
          1                      l2_global_load_bytes       Bytes read from L2 for misses in Unified Cache for global loads      196608      196608      196608
          1                       l2_local_load_bytes        Bytes read from L2 for misses in Unified Cache for local loads           0           0           0
          1                     l2_surface_load_bytes      Bytes read from L2 for misses in Unified Cache for surface loads           0           0           0
          1                           dram_read_bytes                                Total bytes read from DRAM to L2 cache        3104        3104        3104
          1                          dram_write_bytes                             Total bytes written from L2 cache to DRAM     8508864     8508864     8508864
          1               l2_local_global_store_bytes   Bytes written to L2 from Unified Cache for local and global stores.     9080832     9080832     9080832
          1                 l2_global_reduction_bytes          Bytes written to L2 from Unified cache for global reductions           0           0           0
          1              l2_global_atomic_store_bytes             Bytes written to L2 from Unified cache for global atomics           0           0           0
          1                    l2_surface_store_bytes            Bytes written to L2 from Unified Cache for surface stores.           0           0           0
          1                l2_surface_reduction_bytes         Bytes written to L2 from Unified Cache for surface reductions           0           0           0
          1             l2_surface_atomic_store_bytes    Bytes transferred between Unified Cache and L2 for surface atomics           0           0           0
          1                      global_load_requests              Total number of global load requests from Multiprocessor        3072        3072        3072
          1                       local_load_requests               Total number of local load requests from Multiprocessor           0           0           0
          1                     surface_load_requests             Total number of surface load requests from Multiprocessor           0           0           0
          1                     global_store_requests             Total number of global store requests from Multiprocessor      264832      264832      264832
          1                      local_store_requests              Total number of local store requests from Multiprocessor           0           0           0
          1                    surface_store_requests            Total number of surface store requests from Multiprocessor           0           0           0
          1                    global_atomic_requests            Total number of global atomic requests from Multiprocessor           0           0           0
          1                 global_reduction_requests         Total number of global reduction requests from Multiprocessor           0           0           0
          1                   surface_atomic_requests           Total number of surface atomic requests from Multiprocessor           0           0           0
          1                surface_reduction_requests        Total number of surface reduction requests from Multiprocessor           0           0           0
          1                         sysmem_read_bytes                                              System Memory Read Bytes           0           0           0
          1                        sysmem_write_bytes                                             System Memory Write Bytes         160         160         160
          1                           l2_tex_hit_rate                                                     L2 Cache Hit Rate       9.54%       9.54%       9.54%
          1                     texture_load_requests             Total number of texture Load requests from Multiprocessor           0           0           0
          1                     unique_warps_launched                                              Number of warps launched         128         128         128
    Kernel: RayTracer::RenderScreen(CUDA::device_ptr<Sphere>, CUDA::device_ptr<float>, CUDA::device_ptr<glm::vec<int=3, float, glm::qualifier>>, int, int)
          1                             inst_per_warp                                                 Instructions per warp  1.3565e+06  1.3565e+06  1.3565e+06
          1                         branch_efficiency                                                     Branch Efficiency      98.73%      98.73%      98.73%
          1                 warp_execution_efficiency                                             Warp Execution Efficiency      39.19%      39.19%      39.19%
          1         warp_nonpred_execution_efficiency                              Warp Non-Predicated Execution Efficiency      38.18%      38.18%      38.18%
          1                      inst_replay_overhead                                           Instruction Replay Overhead    0.000016    0.000016    0.000016
          1      shared_load_transactions_per_request                           Shared Memory Load Transactions Per Request    0.000000    0.000000    0.000000
          1     shared_store_transactions_per_request                          Shared Memory Store Transactions Per Request    0.000000    0.000000    0.000000
          1       local_load_transactions_per_request                            Local Memory Load Transactions Per Request    0.000000    0.000000    0.000000
          1      local_store_transactions_per_request                           Local Memory Store Transactions Per Request    0.000000    0.000000    0.000000
          1              gld_transactions_per_request                                  Global Load Transactions Per Request   10.887583   10.887583   10.887583
          1              gst_transactions_per_request                                 Global Store Transactions Per Request   16.000000   16.000000   16.000000
          1                 shared_store_transactions                                             Shared Store Transactions           0           0           0
          1                  shared_load_transactions                                              Shared Load Transactions           0           0           0
          1                   local_load_transactions                                               Local Load Transactions           0           0           0
          1                  local_store_transactions                                              Local Store Transactions           0           0           0
          1                          gld_transactions                                              Global Load Transactions  5.2427e+10  5.2427e+10  5.2427e+10
          1                          gst_transactions                                             Global Store Transactions     3110400     3110400     3110400
          1                  sysmem_read_transactions                                       System Memory Read Transactions           0           0           0
          1                 sysmem_write_transactions                                      System Memory Write Transactions           5           5           5
          1                      l2_read_transactions                                                  L2 Read Transactions  1698051873  1698051873  1698051873
          1                     l2_write_transactions                                                 L2 Write Transactions     3110419     3110419     3110419
          1                    dram_read_transactions                                       Device Memory Read Transactions   318586835   318586835   318586835
          1                   dram_write_transactions                                      Device Memory Write Transactions      839850      839850      839850
          1                           global_hit_rate                                     Global Hit Rate in unified l1/tex      77.92%      77.92%      77.92%
          1                            local_hit_rate                                                        Local Hit Rate       0.00%       0.00%       0.00%
          1                  gld_requested_throughput                                      Requested Global Load Throughput  30.023GB/s  30.023GB/s  30.023GB/s
          1                  gst_requested_throughput                                     Requested Global Store Throughput  25.466MB/s  25.466MB/s  25.466MB/s
          1                            gld_throughput                                                Global Load Throughput  245.95GB/s  245.95GB/s  245.95GB/s
          1                            gst_throughput                                               Global Store Throughput  101.87MB/s  101.87MB/s  101.87MB/s
          1                     local_memory_overhead                                                 Local Memory Overhead       0.00%       0.00%       0.00%
          1                        tex_cache_hit_rate                                                Unified Cache Hit Rate      89.39%      89.39%      89.39%
          1                      l2_tex_read_hit_rate                                           L2 Hit Rate (Texture Reads)      81.23%      81.23%      81.23%
          1                     l2_tex_write_hit_rate                                          L2 Hit Rate (Texture Writes)      83.71%      83.71%      83.71%
          1                      dram_read_throughput                                         Device Memory Read Throughput  10.189GB/s  10.189GB/s  10.189GB/s
          1                     dram_write_throughput                                        Device Memory Write Throughput  27.505MB/s  27.505MB/s  27.505MB/s
          1                      tex_cache_throughput                                              Unified Cache Throughput  434.02GB/s  434.02GB/s  434.02GB/s
          1                    l2_tex_read_throughput                                         L2 Throughput (Texture Reads)  54.323GB/s  54.323GB/s  54.323GB/s
          1                   l2_tex_write_throughput                                        L2 Throughput (Texture Writes)  101.87MB/s  101.87MB/s  101.87MB/s
          1                        l2_read_throughput                                                 L2 Throughput (Reads)  54.308GB/s  54.308GB/s  54.308GB/s
          1                       l2_write_throughput                                                L2 Throughput (Writes)  101.87MB/s  101.87MB/s  101.87MB/s
          1                    sysmem_read_throughput                                         System Memory Read Throughput  0.00000B/s  0.00000B/s  0.00000B/s
          1                   sysmem_write_throughput                                        System Memory Write Throughput  171.000B/s  171.000B/s  170.000B/s
          1                     local_load_throughput                                          Local Memory Load Throughput  0.00000B/s  0.00000B/s  0.00000B/s
          1                    local_store_throughput                                         Local Memory Store Throughput  0.00000B/s  0.00000B/s  0.00000B/s
          1                    shared_load_throughput                                         Shared Memory Load Throughput  0.00000B/s  0.00000B/s  0.00000B/s
          1                   shared_store_throughput                                        Shared Memory Store Throughput  0.00000B/s  0.00000B/s  0.00000B/s
          1                            gld_efficiency                                         Global Memory Load Efficiency      12.21%      12.21%      12.21%
          1                            gst_efficiency                                        Global Memory Store Efficiency      25.00%      25.00%      25.00%
          1                    tex_cache_transactions                                            Unified Cache Transactions  1.3570e+10  1.3570e+10  1.3570e+10
          1                             flop_count_dp                           Floating Point Operations(Double Precision)           0           0           0
          1                         flop_count_dp_add                       Floating Point Operations(Double Precision Add)           0           0           0
          1                         flop_count_dp_fma                       Floating Point Operations(Double Precision FMA)           0           0           0
          1                         flop_count_dp_mul                       Floating Point Operations(Double Precision Mul)           0           0           0
          1                             flop_count_sp                           Floating Point Operations(Single Precision)  5.9128e+11  5.9128e+11  5.9128e+11
          1                         flop_count_sp_add                       Floating Point Operations(Single Precision Add)  9.4174e+10  9.4174e+10  9.4174e+10
          1                         flop_count_sp_fma                       Floating Point Operations(Single Precision FMA)  2.1263e+11  2.1263e+11  2.1263e+11
          1                         flop_count_sp_mul                        Floating Point Operation(Single Precision Mul)  7.1840e+10  7.1840e+10  7.1840e+10
          1                     flop_count_sp_special                   Floating Point Operations(Single Precision Special)  1.7397e+10  1.7397e+10  1.7397e+10
          1                             inst_executed                                                 Instructions Executed  8.9293e+10  8.9293e+10  8.9293e+10
          1                               inst_issued                                                   Instructions Issued  8.9294e+10  8.9294e+10  8.9294e+10
          1                          dram_utilization                                             Device Memory Utilization     Low (1)     Low (1)     Low (1)
          1                        sysmem_utilization                                             System Memory Utilization     Low (1)     Low (1)     Low (1)
          1                          stall_inst_fetch                              Issue Stall Reasons (Instructions Fetch)      33.54%      33.54%      33.54%
          1                     stall_exec_dependency                            Issue Stall Reasons (Execution Dependency)      16.72%      16.72%      16.72%
          1                   stall_memory_dependency                                    Issue Stall Reasons (Data Request)      14.35%      14.35%      14.35%
          1                             stall_texture                                         Issue Stall Reasons (Texture)       0.00%       0.00%       0.00%
          1                                stall_sync                                 Issue Stall Reasons (Synchronization)       0.00%       0.00%       0.00%
          1                               stall_other                                           Issue Stall Reasons (Other)      31.24%      31.24%      31.24%
          1          stall_constant_memory_dependency                              Issue Stall Reasons (Immediate constant)       0.01%       0.01%       0.01%
          1                           stall_pipe_busy                                       Issue Stall Reasons (Pipe Busy)       0.51%       0.51%       0.51%
          1                         shared_efficiency                                              Shared Memory Efficiency       0.00%       0.00%       0.00%
          1                                inst_fp_32                                               FP Instructions(Single)  4.7146e+11  4.7146e+11  4.7146e+11
          1                                inst_fp_64                                               FP Instructions(Double)           0           0           0
          1                              inst_integer                                                  Integer Instructions  1.7630e+11  1.7630e+11  1.7630e+11
          1                          inst_bit_convert                                              Bit-Convert Instructions  3152562454  3152562454  3152562454
          1                              inst_control                                             Control-Flow Instructions  1.1732e+11  1.1732e+11  1.1732e+11
          1                        inst_compute_ld_st                                               Load/Store Instructions  6.7038e+10  6.7038e+10  6.7038e+10
          1                                 inst_misc                                                     Misc Instructions  2.5565e+11  2.5565e+11  2.5565e+11
          1           inst_inter_thread_communication                                             Inter-Thread Instructions           0           0           0
          1                               issue_slots                                                           Issue Slots  7.8365e+10  7.8365e+10  7.8365e+10
          1                                 cf_issued                                      Issued Control-Flow Instructions  1.2426e+10  1.2426e+10  1.2426e+10
          1                               cf_executed                                    Executed Control-Flow Instructions  1.2426e+10  1.2426e+10  1.2426e+10
          1                               ldst_issued                                        Issued Load/Store Instructions  1.3572e+10  1.3572e+10  1.3572e+10
          1                             ldst_executed                                      Executed Load/Store Instructions  4816040224  4816040224  4816040224
          1                       atomic_transactions                                                   Atomic Transactions           0           0           0
          1           atomic_transactions_per_request                                       Atomic Transactions Per Request    0.000000    0.000000    0.000000
          1                      l2_atomic_throughput                                       L2 Throughput (Atomic requests)  0.00000B/s  0.00000B/s  0.00000B/s
          1                    l2_atomic_transactions                                     L2 Transactions (Atomic requests)           0           0           0
          1                  l2_tex_read_transactions                                       L2 Transactions (Texture Reads)  1698516178  1698516178  1698516178
          1                     stall_memory_throttle                                 Issue Stall Reasons (Memory Throttle)       0.00%       0.00%       0.00%
          1                        stall_not_selected                                    Issue Stall Reasons (Not Selected)       3.63%       3.63%       3.63%
          1                 l2_tex_write_transactions                                      L2 Transactions (Texture Writes)     3110400     3110400     3110400
          1                             flop_count_hp                             Floating Point Operations(Half Precision)           0           0           0
          1                         flop_count_hp_add                         Floating Point Operations(Half Precision Add)           0           0           0
          1                         flop_count_hp_mul                          Floating Point Operation(Half Precision Mul)           0           0           0
          1                         flop_count_hp_fma                         Floating Point Operations(Half Precision FMA)           0           0           0
          1                                inst_fp_16                                                 HP Instructions(Half)           0           0           0
          1                                       ipc                                                          Executed IPC    1.438022    1.438022    1.438022
          1                                issued_ipc                                                            Issued IPC    1.438098    1.438098    1.438098
          1                    issue_slot_utilization                                                Issue Slot Utilization      63.10%      63.10%      63.10%
          1                             sm_efficiency                                               Multiprocessor Activity      99.10%      99.10%      99.10%
          1                        achieved_occupancy                                                    Achieved Occupancy    0.354867    0.354867    0.354867
          1                  eligible_warps_per_cycle                                       Eligible Warps Per Active Cycle    2.037949    2.037949    2.037949
          1                        shared_utilization                                             Shared Memory Utilization    Idle (0)    Idle (0)    Idle (0)
          1                            l2_utilization                                                  L2 Cache Utilization     Low (1)     Low (1)     Low (1)
          1                           tex_utilization                                             Unified Cache Utilization     Low (3)     Low (3)     Low (3)
          1                       ldst_fu_utilization                                  Load/Store Function Unit Utilization     Low (1)     Low (1)     Low (1)
          1                         cf_fu_utilization                                Control-Flow Function Unit Utilization     Low (2)     Low (2)     Low (2)
          1                        tex_fu_utilization                                     Texture Function Unit Utilization     Low (3)     Low (3)     Low (3)
          1                    special_fu_utilization                                     Special Function Unit Utilization     Low (1)     Low (1)     Low (1)
          1             half_precision_fu_utilization                              Half-Precision Function Unit Utilization    Idle (0)    Idle (0)    Idle (0)
          1           single_precision_fu_utilization                            Single-Precision Function Unit Utilization    High (7)    High (7)    High (7)
          1           double_precision_fu_utilization                            Double-Precision Function Unit Utilization    Idle (0)    Idle (0)    Idle (0)
          1                        flop_hp_efficiency                                            FLOP Efficiency(Peak Half)       0.00%       0.00%       0.00%
          1                        flop_sp_efficiency                                          FLOP Efficiency(Peak Single)       7.37%       7.37%       7.37%
          1                        flop_dp_efficiency                                          FLOP Efficiency(Peak Double)       0.00%       0.00%       0.00%
          1                   sysmem_read_utilization                                        System Memory Read Utilization    Idle (0)    Idle (0)    Idle (0)
          1                  sysmem_write_utilization                                       System Memory Write Utilization     Low (1)     Low (1)     Low (1)
          1               pcie_total_data_transmitted                                           PCIe Total Data Transmitted        3584        3584        3584
          1                  pcie_total_data_received                                              PCIe Total Data Received        2560        2560        2560
          1                inst_executed_global_loads                              Warp level instructions for global loads  4815323328  4815323328  4815323328
          1                 inst_executed_local_loads                               Warp level instructions for local loads           0           0           0
          1                inst_executed_shared_loads                              Warp level instructions for shared loads           0           0           0
          1               inst_executed_surface_loads                             Warp level instructions for surface loads           0           0           0
          1               inst_executed_global_stores                             Warp level instructions for global stores      194400      194400      194400
          1                inst_executed_local_stores                              Warp level instructions for local stores           0           0           0
          1               inst_executed_shared_stores                             Warp level instructions for shared stores           0           0           0
          1              inst_executed_surface_stores                            Warp level instructions for surface stores           0           0           0
          1              inst_executed_global_atomics                  Warp level instructions for global atom and atom cas           0           0           0
          1           inst_executed_global_reductions                         Warp level instructions for global reductions           0           0           0
          1             inst_executed_surface_atomics                 Warp level instructions for surface atom and atom cas           0           0           0
          1          inst_executed_surface_reductions                        Warp level instructions for surface reductions           0           0           0
          1              inst_executed_shared_atomics                  Warp level shared instructions for atom and atom CAS           0           0           0
          1                     inst_executed_tex_ops                                   Warp level instructions for texture           0           0           0
          1                      l2_global_load_bytes       Bytes read from L2 for misses in Unified Cache for global loads  5.4340e+10  5.4340e+10  5.4340e+10
          1                       l2_local_load_bytes        Bytes read from L2 for misses in Unified Cache for local loads           0           0           0
          1                     l2_surface_load_bytes      Bytes read from L2 for misses in Unified Cache for surface loads           0           0           0
          1                           dram_read_bytes                                Total bytes read from DRAM to L2 cache  1.0195e+10  1.0195e+10  1.0195e+10
          1                          dram_write_bytes                             Total bytes written from L2 cache to DRAM    26875200    26875200    26875200
          1               l2_local_global_store_bytes   Bytes written to L2 from Unified Cache for local and global stores.    99532800    99532800    99532800
          1                 l2_global_reduction_bytes          Bytes written to L2 from Unified cache for global reductions           0           0           0
          1              l2_global_atomic_store_bytes             Bytes written to L2 from Unified cache for global atomics           0           0           0
          1                    l2_surface_store_bytes            Bytes written to L2 from Unified Cache for surface stores.           0           0           0
          1                l2_surface_reduction_bytes         Bytes written to L2 from Unified Cache for surface reductions           0           0           0
          1             l2_surface_atomic_store_bytes    Bytes transferred between Unified Cache and L2 for surface atomics           0           0           0
          1                      global_load_requests              Total number of global load requests from Multiprocessor  1.3570e+10  1.3570e+10  1.3570e+10
          1                       local_load_requests               Total number of local load requests from Multiprocessor           0           0           0
          1                     surface_load_requests             Total number of surface load requests from Multiprocessor           0           0           0
          1                     global_store_requests             Total number of global store requests from Multiprocessor      777600      777600      777600
          1                      local_store_requests              Total number of local store requests from Multiprocessor           0           0           0
          1                    surface_store_requests            Total number of surface store requests from Multiprocessor           0           0           0
          1                    global_atomic_requests            Total number of global atomic requests from Multiprocessor           0           0           0
          1                 global_reduction_requests         Total number of global reduction requests from Multiprocessor           0           0           0
          1                   surface_atomic_requests           Total number of surface atomic requests from Multiprocessor           0           0           0
          1                surface_reduction_requests        Total number of surface reduction requests from Multiprocessor           0           0           0
          1                         sysmem_read_bytes                                              System Memory Read Bytes           0           0           0
          1                        sysmem_write_bytes                                             System Memory Write Bytes         160         160         160
          1                           l2_tex_hit_rate                                                     L2 Cache Hit Rate      81.25%      81.25%      81.25%
          1                     texture_load_requests             Total number of texture Load requests from Multiprocessor           0           0           0
          1                     unique_warps_launched                                              Number of warps launchewangpeng@dacent:~/tools/gitlab-william/backup6/GPU-rendering-programs/81-Luminous-spherewangpeng@dacent:~/tools/gitlab-william/backup6/GPU-rendering-programs/81-Luminous-sphere-rendered-sample3/build$
