// Benchmark Characteristics
// Time: Tue Jan 14 07:45:09 2025
// Benchmark: bb1.txt -- ./rasterizer        
 
// Program Stats
Basic Blocks: 7599
Memory Reads: 1770685811
Memory Writes: 837106471
Total Instructions: 4163806921
